^D:\RP_CODE\РАЗНОЕ\REL_2.0.0.0\TRUNK\SOURCE\MDIGCONSOLE\SRC\WINNT\MDIGCONSOLE.CPP|D:\RP_CODE\РАЗНОЕ\REL_2.0.0.0\TRUNK\SOURCE\MDIGCONSOLE\SRC\WINNT\MDIGUTILS.CPP
D:\RP_CODE\Разное\REL_2.0.0.0\TRUNK\BUILD\VC10 WINNT (X86) DEBUG\MDIGCONSOLE\MDIGCONSOLE.OBJ
D:\RP_CODE\Разное\REL_2.0.0.0\TRUNK\BUILD\VC10 WINNT (X86) DEBUG\MDIGCONSOLE\MDIGUTILS.OBJ
^D:\RP_CODE\РАЗНОЕ\REL_2.0.0.0\TRUNK\SOURCE\MDIGCONSOLE\SRC\WINNT\MDIGCONSOLE.CPP
D:\RP_CODE\РАЗНОЕ\REL_2.0.0.0\TRUNK\BUILD\VC10 WINNT (X86) DEBUG\MDIGCONSOLE\VC100.PDB
^D:\RP_CODE\РАЗНОЕ\REL_2.0.0.0\TRUNK\SOURCE\MDIGCONSOLE\SRC\WINNT\MDIGUTILS.CPP
D:\RP_CODE\РАЗНОЕ\REL_2.0.0.0\TRUNK\BUILD\VC10 WINNT (X86) DEBUG\MDIGCONSOLE\VC100.PDB
