^D:\RP_CODE\РАЗНОЕ\REL_2.0.0.0\TRUNK\SOURCE\MDIGCONSOLE\SRC\WINNT\MDIGCONSOLE.ENG.RC
D:\RP_CODE\Разное\REL_2.0.0.0\TRUNK\BUILD\VC10 WINNT (X86) DEBUG\MDIGCONSOLE\MDIGCONSOLE.ENG.RES
^D:\RP_CODE\РАЗНОЕ\REL_2.0.0.0\TRUNK\SOURCE\MDIGCONSOLE\SRC\WINNT\MDIGCONSOLE.RC
D:\RP_CODE\Разное\REL_2.0.0.0\TRUNK\BUILD\VC10 WINNT (X86) DEBUG\MDIGCONSOLE\MDIGCONSOLE.RES
